…
    names(Tslist) <- 
      c("Phytopla1", "Roti1", "Zoopla1", "Mp1", "Det1", "Herb1", "Pred.P1", "Pred.B1", "Pred.S1", "Pred.C1", "Moll1")

    lapply(c("Phytopla1", "Roti1", "Det1", "Herb1", "Pred.P1", "Pred.B1", "Pred.S1", "Pred.C1", "Moll1"), 
           function(i) { 
             Tslist[[i]] <<- mutate(Tslist[[i]], scAbundance=as.numeric(scale(log(Abundance+1))))
           }
    )

    ## [[1]]
    ## # A tibble: 264 x 4
    ##     Week Year_Tank  Abundance scAbundance
    ##    <dbl> <fct>          <dbl>       <dbl>
    ##  1     2 2017_Cont1       799      0.706 
    ##  2     4 2017_Cont1        86     -0.118 
    ##  3     6 2017_Cont1      1873      1.02  
    ##  4     8 2017_Cont1       187      0.168 
    ##  5    10 2017_Cont1       127      0.0258
    ##  6    12 2017_Cont1       305      0.349 
    ##  7    14 2017_Cont1      1001      0.790 
    ##  8    16 2017_Cont1      3170      1.22  
    ##  9    18 2017_Cont1       613      0.608 
    ## 10    20 2017_Cont1      3860      1.29  
    ## # ... with 254 more rows
    ## 
    ## [[2]]
    ## # A tibble: 264 x 4
    ##     Week Year_Tank  Abundance scAbundance
    ##    <dbl> <fct>          <dbl>       <dbl>
    ##  1     2 2017_Cont1         0      -1.19 
    ##  2     4 2017_Cont1        29       0.870
    ##  3     6 2017_Cont1        27       0.828
    ##  4     8 2017_Cont1       124       1.74 
    ##  5    10 2017_Cont1       129       1.76 
    ##  6    12 2017_Cont1        92       1.56 
    ##  7    14 2017_Cont1        75       1.43 
    ##  8    16 2017_Cont1        40       1.06 
    ##  9    18 2017_Cont1        29       0.870
    ## 10    20 2017_Cont1        40       1.06 
    ## # ... with 254 more rows
    ## 
    ## [[3]]
    ## # A tibble: 264 x 4
    ##     Week Year_Tank  Abundance scAbundance
    ##    <dbl> <fct>          <dbl>       <dbl>
    ##  1     2 2017_Cont1        60       1.27 
    ##  2     4 2017_Cont1        17       0.366
    ##  3     6 2017_Cont1        25       0.638
    ##  4     8 2017_Cont1         3      -0.745
    ##  5    10 2017_Cont1         5      -0.446
    ##  6    12 2017_Cont1         8      -0.146
    ##  7    14 2017_Cont1        24       0.609
    ##  8    16 2017_Cont1        36       0.898
    ##  9    18 2017_Cont1        13       0.180
    ## 10    20 2017_Cont1        13       0.180
    ## # ... with 254 more rows
    ## 
    ## [[4]]
    ## # A tibble: 264 x 4
    ##     Week Year_Tank  Abundance scAbundance
    ##    <dbl> <fct>          <dbl>       <dbl>
    ##  1     2 2017_Cont1         2     0.493  
    ##  2     4 2017_Cont1         0    -0.857  
    ##  3     6 2017_Cont1         3     0.847  
    ##  4     8 2017_Cont1         1    -0.00524
    ##  5    10 2017_Cont1         3     0.847  
    ##  6    12 2017_Cont1         1    -0.00524
    ##  7    14 2017_Cont1         2     0.493  
    ##  8    16 2017_Cont1         0    -0.857  
    ##  9    18 2017_Cont1         0    -0.857  
    ## 10    20 2017_Cont1         0    -0.857  
    ## # ... with 254 more rows
    ## 
    ## [[5]]
    ## # A tibble: 264 x 4
    ##     Week Year_Tank  Abundance scAbundance
    ##    <dbl> <fct>          <dbl>       <dbl>
    ##  1     2 2017_Cont1         0      -0.593
    ##  2     4 2017_Cont1         0      -0.593
    ##  3     6 2017_Cont1         5       1.81 
    ##  4     8 2017_Cont1         2       0.882
    ##  5    10 2017_Cont1        13       2.95 
    ##  6    12 2017_Cont1        11       2.74 
    ##  7    14 2017_Cont1         8       2.36 
    ##  8    16 2017_Cont1        14       3.04 
    ##  9    18 2017_Cont1         9       2.50 
    ## 10    20 2017_Cont1        12       2.85 
    ## # ... with 254 more rows
    ## 
    ## [[6]]
    ## # A tibble: 264 x 4
    ##     Week Year_Tank  Abundance scAbundance
    ##    <dbl> <fct>          <dbl>       <dbl>
    ##  1     2 2017_Cont1         2       0.198
    ##  2     4 2017_Cont1         1      -0.170
    ##  3     6 2017_Cont1         8       1.19 
    ##  4     8 2017_Cont1         1      -0.170
    ##  5    10 2017_Cont1         4       0.661
    ##  6    12 2017_Cont1         9       1.29 
    ##  7    14 2017_Cont1         6       0.966
    ##  8    16 2017_Cont1         7       1.09 
    ##  9    18 2017_Cont1         3       0.459
    ## 10    20 2017_Cont1         2       0.198
    ## # ... with 254 more rows
    ## 
    ## [[7]]
    ## # A tibble: 264 x 4
    ##     Week Year_Tank  Abundance scAbundance
    ##    <dbl> <fct>          <dbl>       <dbl>
    ##  1     2 2017_Cont1         0      -1.04 
    ##  2     4 2017_Cont1         3       0.547
    ##  3     6 2017_Cont1         0      -1.04 
    ##  4     8 2017_Cont1         0      -1.04 
    ##  5    10 2017_Cont1         2       0.218
    ##  6    12 2017_Cont1         0      -1.04 
    ##  7    14 2017_Cont1         3       0.547
    ##  8    16 2017_Cont1         4       0.803
    ##  9    18 2017_Cont1         0      -1.04 
    ## 10    20 2017_Cont1         0      -1.04 
    ## # ... with 254 more rows
    ## 
    ## [[8]]
    ## # A tibble: 264 x 4
    ##     Week Year_Tank  Abundance scAbundance
    ##    <dbl> <fct>          <dbl>       <dbl>
    ##  1     2 2017_Cont1         0      -0.263
    ##  2     4 2017_Cont1         0      -0.263
    ##  3     6 2017_Cont1         0      -0.263
    ##  4     8 2017_Cont1         0      -0.263
    ##  5    10 2017_Cont1         0      -0.263
    ##  6    12 2017_Cont1         0      -0.263
    ##  7    14 2017_Cont1         0      -0.263
    ##  8    16 2017_Cont1         0      -0.263
    ##  9    18 2017_Cont1         0      -0.263
    ## 10    20 2017_Cont1         0      -0.263
    ## # ... with 254 more rows
    ## 
    ## [[9]]
    ## # A tibble: 264 x 4
    ##     Week Year_Tank  Abundance scAbundance
    ##    <dbl> <fct>          <dbl>       <dbl>
    ##  1     2 2017_Cont1         0      -1.21 
    ##  2     4 2017_Cont1         0      -1.21 
    ##  3     6 2017_Cont1        33       0.766
    ##  4     8 2017_Cont1         0      -1.21 
    ##  5    10 2017_Cont1        31       0.732
    ##  6    12 2017_Cont1        22       0.546
    ##  7    14 2017_Cont1        15       0.342
    ##  8    16 2017_Cont1         0      -1.21 
    ##  9    18 2017_Cont1         0      -1.21 
    ## 10    20 2017_Cont1         4      -0.311
    ## # ... with 254 more rows
…
